DEBUGMODULE=Sound::Backend::PulseAudio
const char* pa_get_library_version(void)
const char* pa_strerror(int error)
pa_simple* pa_simple_new(const char* server, const char* name, pa_stream_direction_t dir, const char* dev, const char* stream, const pa_sample_spec* ss, const pa_channel_map* map, const pa_buffer_attr* attr, int* error)
int pa_simple_write(pa_simple* s, const void* data, size_t bytes, int* error)
int pa_simple_flush(pa_simple* s, int* error)
void pa_simple_free(pa_simple* s)
